R introduction and dplyr
…
claim_data <- read.csv("./data/insurance01.csv")
head(claim_data)

##   age    sex    bmi children smoker    region   charges
## 1  19 female 27.900        0    yes southwest 16884.924
## 2  18   male 33.770        1     no southeast  1725.552
## 3  28   male 33.000        3     no southeast  4449.462
## 4  33   male 22.705        0     no northwest 21984.471
## 5  32   male 28.880        0     no northwest  3866.855
## 6  31 female 25.740        0     no southeast  3756.622

claim_data <- as_tibble(claim_data)
claim_data

## # A tibble: 1,338 x 7
##      age sex      bmi children smoker region    charges
##    <int> <fct>  <dbl>    <int> <fct>  <fct>       <dbl>
##  1    19 female  27.9        0 yes    southwest  16885.
##  2    18 male    33.8        1 no     southeast   1726.
##  3    28 male    33          3 no     southeast   4449.
##  4    33 male    22.7        0 no     northwest  21984.
##  5    32 male    28.9        0 no     northwest   3867.
##  6    31 female  25.7        0 no     southeast   3757.
##  7    46 female  33.4        1 no     southeast   8241.
##  8    37 female  27.7        3 no     northwest   7282.
##  9    37 male    29.8        2 no     northeast   6406.
## 10    60 female  25.8        0 no     northwest  28923.
## # ... with 1,328 more rows

A tibble only shows the first 10 rows of the data set for clarity. Additionally, it only prints as many columns as fit into a page, and lists other columns below. If we wish to see all of the tibble, we can use the function View(). Under the variable names, a tibble shows the type of the variables.

Now that we have our starting data set, we can begin manipulating it. This usually consists of selecting specific rows and columns, and adding statistics derived from variables in the data frame. Below we describe five functions which will enable us dynamic data set manipulation.

Filter

The function filter() allows us to select rows, based on values of the variables. As input it gets a tibble and the conditions and it outputs a new tibble that consists only of desired rows.

filter(claim_data, region == "southwest")

## # A tibble: 325 x 7
##      age sex      bmi children smoker region    charges
##    <int> <fct>  <dbl>    <int> <fct>  <fct>       <dbl>
##  1    19 female  27.9        0 yes    southwest  16885.
##  2    23 male    34.4        0 no     southwest   1827.
##  3    19 male    24.6        1 no     southwest   1837.
##  4    56 male    40.3        0 no     southwest  10602.
##  5    30 male    35.3        0 yes    southwest  36837.
##  6    30 female  32.4        1 no     southwest   4150.
##  7    31 male    36.3        2 yes    southwest  38711 
##  8    22 male    35.6        0 yes    southwest  35586.
##  9    19 female  28.6        5 no     southwest   4688.
## 10    28 male    36.4        1 yes    southwest  51195.
## # ... with 315 more rows

filter(claim_data, region == "southwest", age >= 30)

## # A tibble: 226 x 7
##      age sex      bmi children smoker region    charges
##    <int> <fct>  <dbl>    <int> <fct>  <fct>       <dbl>
##  1    56 male    40.3        0 no     southwest  10602.
##  2    30 male    35.3        0 yes    southwest  36837.
##  3    30 female  32.4        1 no     southwest   4150.
##  4    31 male    36.3        2 yes    southwest  38711 
##  5    60 male    39.9        0 yes    southwest  48173.
##  6    55 male    37.3        0 no     southwest  20630.
##  7    48 male    28          1 yes    southwest  23568.
##  8    61 female  39.1        2 no     southwest  14235.
##  9    53 female  28.1        3 no     southwest  11742.
## 10    44 male    27.4        2 no     southwest   7727.
## # ... with 216 more rows

The conditions in filter use andall conditions have to be satisfied. If we want to use or, we have to divide them with a pipe |.

filter(claim_data, region == "southwest" | region == "northwest")

## # A tibble: 650 x 7
##      age sex      bmi children smoker region    charges
##    <int> <fct>  <dbl>    <int> <fct>  <fct>       <dbl>
##  1    19 female  27.9        0 yes    southwest  16885.
##  2    33 male    22.7        0 no     northwest  21984.
##  3    32 male    28.9        0 no     northwest   3867.
##  4    37 female  27.7        3 no     northwest   7282.
##  5    60 female  25.8        0 no     northwest  28923.
##  6    23 male    34.4        0 no     southwest   1827.
##  7    19 male    24.6        1 no     southwest   1837.
##  8    56 male    40.3        0 no     southwest  10602.
##  9    30 male    35.3        0 yes    southwest  36837.
## 10    30 female  32.4        1 no     southwest   4150.
## # ... with 640 more rows

Or, the same can be achieved by using the operator %in%.

filter(claim_data, region %in% c("southwest", "northwest"))

## # A tibble: 650 x 7
##      age sex      bmi children smoker region    charges
##    <int> <fct>  <dbl>    <int> <fct>  <fct>       <dbl>
##  1    19 female  27.9        0 yes    southwest  16885.
##  2    33 male    22.7        0 no     northwest  21984.
##  3    32 male    28.9        0 no     northwest   3867.
##  4    37 female  27.7        3 no     northwest   7282.
##  5    60 female  25.8        0 no     northwest  28923.
##  6    23 male    34.4        0 no     southwest   1827.
##  7    19 male    24.6        1 no     southwest   1837.
##  8    56 male    40.3        0 no     southwest  10602.
##  9    30 male    35.3        0 yes    southwest  36837.
## 10    30 female  32.4        1 no     southwest   4150.
## # ... with 640 more rows

For example, lets say we are interested in doing further analysis on people older than 18, who live in the south. We can construct a new tibble, where we filter out the unnecessary rows.

claim_df <- filter(claim_data, region %in% c("southwest", "southeast"), 
                   age >= 30)

Arrange

To arrange data we use dplyrs function arrange(), which gets a tibble and the variables on which to arrange. If we want a descending arrangement, we have to use function desc().

arrange(claim_df, age)

## # A tibble: 475 x 7
##      age sex      bmi children smoker region    charges
##    <int> <fct>  <dbl>    <int> <fct>  <fct>       <dbl>
##  1    30 male    35.3        0 yes    southwest  36837.
##  2    30 female  32.4        1 no     southwest   4150.
##  3    30 male    35.5        0 yes    southeast  36950.
##  4    30 female  30.9        3 no     southwest   5326.
##  5    30 female  33.3        1 no     southeast   4151.
##  6    30 female  27.7        0 no     southwest   3554.
##  7    30 female  28.4        1 yes    southeast  19522.
##  8    30 female  43.1        2 no     southeast   4754.
##  9    30 male    37.8        2 yes    southwest  39241.
## 10    30 male    31.4        1 no     southwest   3659.
## # ... with 465 more rows

arrange(claim_df, age, desc(charges))

## # A tibble: 475 x 7
##      age sex      bmi children smoker region    charges
##    <int> <fct>  <dbl>    <int> <fct>  <fct>       <dbl>
##  1    30 female  39.0        3 yes    southeast  40932.
##  2    30 male    37.8        2 yes    southwest  39241.
##  3    30 male    35.5        0 yes    southeast  36950.
##  4    30 male    35.3        0 yes    southwest  36837.
##  5    30 female  28.4        1 yes    southeast  19522.
##  6    30 male    38.8        1 no     southeast  18963.
##  7    30 male    24.4        3 yes    southwest  18259.
##  8    30 female  30.9        3 no     southwest   5326.
##  9    30 male    31.6        3 no     southeast   4838.
## 10    30 female  43.1        2 no     southeast   4754.
## # ... with 465 more rows

Select

In our current data set we have a relatively small number of columns, so working with our tibble is not too complicated. However, we often encounter data sets with large numbers of columns. In such situations, we might want to select a subset of columns. For that we have the function select.

To select certain columns, input the names into select.

select(claim_df, age, sex)

## # A tibble: 475 x 2
##      age sex   
##    <int> <fct> 
##  1    31 female
##  2    46 female
##  3    62 female
##  4    56 female
##  5    56 male  
##  6    30 male  
##  7    30 female
##  8    59 female
##  9    31 male  
## 10    60 male  
## # ... with 465 more rows

We can also select all columns between two columns with a colon. Using a minus sign will select all columns except the ones in the expression.

select(claim_df, bmi:region)

## # A tibble: 475 x 4
##      bmi children smoker region   
##    <dbl>    <int> <fct>  <fct>    
##  1  25.7        0 no     southeast
##  2  33.4        1 no     southeast
##  3  26.3        0 yes    southeast
##  4  39.8        0 no     southeast
##  5  40.3        0 no     southwest
##  6  35.3        0 yes    southwest
##  7  32.4        1 no     southwest
##  8  27.7        3 no     southeast
##  9  36.3        2 yes    southwest
## 10  39.9        0 yes    southwest
## # ... with 465 more rows

select(claim_df, -(bmi:region))

## # A tibble: 475 x 3
##      age sex    charges
##    <int> <fct>    <dbl>
##  1    31 female   3757.
##  2    46 female   8241.
##  3    62 female  27809.
##  4    56 female  11091.
##  5    56 male    10602.
##  6    30 male    36837.
##  7    30 female   4150.
##  8    59 female  14001.
##  9    31 male    38711 
## 10    60 male    48173.
## # ... with 465 more rows

There are several utility functions that let us select columns based on their names, for example ends_with, starts_with, or contains.

select(claim_df, starts_with("c"))

## # A tibble: 475 x 2
##    children charges
##       <int>   <dbl>
##  1        0   3757.
##  2        1   8241.
##  3        0  27809.
##  4        0  11091.
##  5        0  10602.
##  6        0  36837.
##  7        1   4150.
##  8        3  14001.
##  9        2  38711 
## 10        0  48173.
## # ... with 465 more rows

Mutate

To create new variables in the data frame, dependent on the existing variables, we can use the mutate() function. For example, lets create a new variable, which will consist of charges per insured person.

claim_df <- mutate(claim_df, charges_per_person = charges / (children + 1))
claim_df

## # A tibble: 475 x 8
##      age sex      bmi children smoker region    charges charges_per_person
##    <int> <fct>  <dbl>    <int> <fct>  <fct>       <dbl>              <dbl>
##  1    31 female  25.7        0 no     southeast   3757.              3757.
##  2    46 female  33.4        1 no     southeast   8241.              4120.
##  3    62 female  26.3        0 yes    southeast  27809.             27809.
##  4    56 female  39.8        0 no     southeast  11091.             11091.
##  5    56 male    40.3        0 no     southwest  10602.             10602.
##  6    30 male    35.3        0 yes    southwest  36837.             36837.
##  7    30 female  32.4        1 no     southwest   4150.              2075.
##  8    59 female  27.7        3 no     southeast  14001.              3500.
##  9    31 male    36.3        2 yes    southwest  38711              12904.
## 10    60 male    39.9        0 yes    southwest  48173.             48173.
## # ... with 465 more rows
…
classify_bmi <- function (bmi) {
  bmi_classes <- rep("underweight", times = length(bmi))
  bmi_classes[bmi >= 18.5 & bmi < 25] <- "normal"
  bmi_classes[bmi >= 25]              <- "overweight"
  bmi_classes <- factor(bmi_classes, levels = c("underweight", 
                                                "normal", 
                                                "overweight"),
                        ordered = TRUE)
  return(bmi_classes)
}
claim_df <- mutate(claim_df, bmi_class = classify_bmi(bmi))
claim_df

## # A tibble: 475 x 9
##      age sex     bmi children smoker region charges charges_per_per~
##    <int> <fct> <dbl>    <int> <fct>  <fct>    <dbl>            <dbl>
##  1    31 fema~  25.7        0 no     south~   3757.            3757.
##  2    46 fema~  33.4        1 no     south~   8241.            4120.
##  3    62 fema~  26.3        0 yes    south~  27809.           27809.
##  4    56 fema~  39.8        0 no     south~  11091.           11091.
##  5    56 male   40.3        0 no     south~  10602.           10602.
##  6    30 male   35.3        0 yes    south~  36837.           36837.
##  7    30 fema~  32.4        1 no     south~   4150.            2075.
##  8    59 fema~  27.7        3 no     south~  14001.            3500.
##  9    31 male   36.3        2 yes    south~  38711            12904.
## 10    60 male   39.9        0 yes    south~  48173.           48173.
## # ... with 465 more rows, and 1 more variable: bmi_class <ord>

The tibble is too wide to show all variables. Let us use select to check the values of our new variable.

select(claim_df, bmi, bmi_class)

## # A tibble: 475 x 2
##      bmi bmi_class 
##    <dbl> <ord>     
##  1  25.7 overweight
##  2  33.4 overweight
##  3  26.3 overweight
##  4  39.8 overweight
##  5  40.3 overweight
##  6  35.3 overweight
##  7  32.4 overweight
##  8  27.7 overweight
##  9  36.3 overweight
## 10  39.9 overweight
## # ... with 465 more rows
…
Long and wide data formats

Usually we encounter data in a wide format. A wide format of data is a format where each row represents an object, some columns represent identifiers of this object, and several columns contain measurements associated with this object. On the other hand, in a long format each row represents a measurement. In other words, the columns that contain object identifiers remain unchanged, but we get a new row for each of the measured values. The long format is usually easier to process, while the wide format is easier to comprehend. Also several R functions (for example ggplot) require a long data format.

The functions for conversion between the formats in tidyr are gather (wide to long) and spread (long to wide). Let us look how to use them on a stock market data (acquired from the R package datasets). Here we have the daily closing prices of four major European stock indices between the years 1991 and 1998. Each row represents an object  the day of the closing prices. Then we have four measurements (prices). This data frame is therefore in a wide format. Let us convert it to a long format, and then back to wide, to see how to use gather and spread.

library(tidyr)
stock_df <- datasets::EuStockMarkets
stock_df <- as_tibble(data.frame(X = as.matrix(stock_df), time=time(stock_df)))
stock_df

## # A tibble: 1,860 x 5
##    X.DAX X.SMI X.CAC X.FTSE  time
##    <dbl> <dbl> <dbl>  <dbl> <dbl>
##  1 1629. 1678. 1773.  2444. 1991.
##  2 1614. 1688. 1750.  2460. 1992.
##  3 1607. 1679. 1718   2448. 1992.
##  4 1621. 1684. 1708.  2470. 1992.
##  5 1618. 1687. 1723.  2485. 1992.
##  6 1611. 1672. 1714.  2467. 1992.
##  7 1631. 1683. 1734.  2488. 1992.
##  8 1640. 1704. 1757.  2508. 1992.
##  9 1635. 1698. 1754   2510. 1992.
## 10 1646. 1716. 1754.  2497. 1992.
## # ... with 1,850 more rows

df_long <- gather(stock_df, key = "stock", value = "price", -time)
df_long

## # A tibble: 7,440 x 3
##     time stock price
##    <dbl> <chr> <dbl>
##  1 1991. X.DAX 1629.
##  2 1992. X.DAX 1614.
##  3 1992. X.DAX 1607.
##  4 1992. X.DAX 1621.
##  5 1992. X.DAX 1618.
##  6 1992. X.DAX 1611.
##  7 1992. X.DAX 1631.
##  8 1992. X.DAX 1640.
##  9 1992. X.DAX 1635.
## 10 1992. X.DAX 1646.
## # ... with 7,430 more rows

df_wide <- spread(df_long, key = "stock", value = "price")
df_wide

## # A tibble: 1,860 x 5
##     time X.CAC X.DAX X.FTSE X.SMI
##    <dbl> <dbl> <dbl>  <dbl> <dbl>
##  1 1991. 1773. 1629.  2444. 1678.
##  2 1992. 1750. 1614.  2460. 1688.
##  3 1992. 1718  1607.  2448. 1679.
##  4 1992. 1708. 1621.  2470. 1684.
##  5 1992. 1723. 1618.  2485. 1687.
##  6 1992. 1714. 1611.  2467. 1672.
##  7 1992. 1734. 1631.  2488. 1683.
##  8 1992. 1757. 1640.  2508. 1704.
##  9 1992. 1754  1635.  2510. 1698.
## 10 1992. 1754. 1646.  2497. 1716.
## # ... with 1,850 more rows
